<?xml version="1.0" encoding="utf-8"?>
<!-- Generator: Adobe Illustrator 21.0.0, SVG Export Plug-In . SVG Version: 6.00 Build 0)  -->
<svg version="1.1" id="Layer_1" xmlns="http://www.w3.org/2000/svg" xmlns:xlink="http://www.w3.org/1999/xlink" x="0px" y="0px"
	 width="103px" height="125px" viewBox="0 0 103 125" enable-background="new 0 0 103 125" xml:space="preserve">
<path fill="#FDD491" d="M9.44,120.28c0,2.61-2.11,4.72-4.72,4.72C2.12,125,0,122.89,0,120.28V50.12c0-2.6,2.11-4.72,4.72-4.72
	c2.6,0,4.72,2.11,4.72,4.72V120.28z"/>
<path fill="#F7AE83" d="M31.74,120.28c0,2.61-2.11,4.72-4.72,4.72c-2.61,0-4.72-2.11-4.72-4.72V50.12c0-2.6,2.11-4.72,4.72-4.72
	c2.6,0,4.72,2.11,4.72,4.72V120.28z"/>
<path fill="#F088B6" d="M54.05,120.28c0,2.61-2.11,4.72-4.72,4.72c-2.61,0-4.72-2.11-4.72-4.72V50.12c0-2.6,2.11-4.72,4.72-4.72
	c2.6,0,4.72,2.11,4.72,4.72V120.28z"/>
<path fill="#8DA6D6" d="M76.35,120.28c0,2.61-2.11,4.72-4.72,4.72c-2.6,0-4.72-2.11-4.72-4.72V50.12c0-2.6,2.11-4.72,4.72-4.72
	c2.6,0,4.72,2.11,4.72,4.72V120.28z"/>
<path fill="#74C9E3" d="M98.65,120.28c0,2.61-2.11,4.72-4.72,4.72c-2.61,0-4.72-2.11-4.72-4.72V50.12c0-2.6,2.11-4.72,4.72-4.72
	c2.6,0,4.72,2.11,4.72,4.72V120.28z"/>
<polygon fill="#FDD491" points="0,0.77 6.9,0.77 6.9,30.03 12.83,30.03 12.83,35.25 0,35.25 "/>
<path fill="#F7AE83" d="M28.3,29.12c0,1.15,0.29,1.68,1.15,1.68s1.2-0.48,1.2-1.68V6.61c0-1.15-0.29-1.68-1.2-1.68
	c-0.81,0-1.15,0.53-1.15,1.68V29.12z M29.45,0c6.13,0,8.05,2.87,8.05,8.91v18.2c0,6.08-1.96,8.91-8.05,8.91
	c-6.08,0-8.05-2.83-8.05-8.91V8.91C21.41,2.83,23.42,0,29.45,0"/>
<polygon fill="#F088B6" points="46.5,0.77 53.4,0.77 53.4,30.03 59.34,30.03 59.34,35.25 46.5,35.25 "/>
<polygon fill="#8DA6D6" points="68.1,0.77 75,0.77 75,30.03 80.93,30.03 80.93,35.25 68.1,35.25 "/>
<path fill="#74C9E3" d="M90.79,22.17L85.57,0.77h7.09l1.25,7.85c0.29,1.87,0.48,3.69,0.57,5.56h0.29c0.29-2.49,0.53-4.31,0.72-5.51
	l1.39-7.9H103l-5.36,21.41v13.07h-6.85V22.17z"/>
</svg>
